fecha,localidad,departamento,provincia,latitud,longitud
2020-03-13,Gualeguay,,Entre Ríos,-33.144619,-59.332405
2020-03-17,Paraná,,Entre Ríos,-31.747241,-60.550068
2020-03-18,Gualeguay,,Entre Ríos,-33.144619,-59.332405
2020-03-20,Gualeguaychú,,Entre Ríos,-33.008098,-58.583538
2020-03-25,Paraná,,Entre Ríos,-31.747241,-60.550068
2020-03-25,Gualeguay,,Entre Ríos,-33.144619,-59.332405
2020-03-25,Villaguay,,Entre Ríos,-31.859640999999996,-59.032109
2020-03-26,Paraná,,Entre Ríos,-31.747241,-60.550068
2020-03-26,La Paz,,Entre Ríos,,
2020-03-26,Diamante,,Entre Ríos,-32.069224,-60.630263
2020-03-30,Gualeguaychú,,Entre Ríos,-33.008098,-58.583538
2020-03-30,Colón,,Entre Ríos,-32.225084,-58.145681
2020-03-30,Concordia,,Entre Ríos,-31.396065999999998,-58.018554
2020-04-01,Colón,,Entre Ríos,-32.225084,-58.145681
2020-04-02,Gualeguaychú,,Entre Ríos,-33.008098,-58.583538
2020-04-02,Paraná,,Entre Ríos,-31.747241,-60.550068
2020-04-03,Gualeguaychú,,Entre Ríos,-33.008098,-58.583538
2020-04-03,Paraná,,Entre Ríos,-31.747241,-60.550068
2020-04-05,Paraná,,Entre Ríos,-31.747241,-60.550068
2020-04-09,Islas del Ibicuy,,Entre Ríos,-33.743432899999995,-59.1560532
2020-04-09,Libertador San Martín,Diamante,Entre Ríos,-32.065569,-60.4953592
2020-04-15,Colón,,Entre Ríos,-32.225084,-58.145681
2020-04-28,Paraná,,Entre Ríos,-31.747241,-60.550068
2020-04-30,Gualeguaychú,,Entre Ríos,-33.008098,-58.583538
2020-04-30,Villaguay,,Entre Ríos,-33.144619,-59.332405
2020-05-03,Gualeguaychú,,Entre Ríos,-33.008098,-58.583538
2020-05-03,Larroque,,Entre Ríos,-33.035928000000006,-59.000493299999995
2020-03-14,Rosario,Rosario,Santa Fe,-32.951583,-60.658914
2020-03-19,Rosario,Rosario,Santa Fe,-32.951583,-60.658914
2020-03-21,Santa Fe,La Capital,Santa Fe,-31.597238,-60.703039000000004
2020-03-21,Rafaela,Castellanos,Santa Fe,-31.254752000000003,-61.522802
2020-03-23,Rosario,Rosario,Santa Fe,-32.951583,-60.658914
2020-03-23,Rosario,Rosario,Santa Fe,-32.951583,-60.658914
2020-03-23,Rosario,Rosario,Santa Fe,-32.951583,-60.658914
2020-03-23,Rosario,Rosario,Santa Fe,-32.951583,-60.658914
2020-03-23,Rosario,Rosario,Santa Fe,-32.951583,-60.658914
2020-03-23,Rosario,Rosario,Santa Fe,-32.951583,-60.658914
2020-03-23,Gálvez,San Jerónimo,Santa Fe,-32.028863,-61.22444
2020-03-23,Gálvez,San Jerónimo,Santa Fe,-32.028863,-61.22444
2020-03-23,Villa Gobernador Gálvez,Rosario,Santa Fe,-33.022764,-60.639393000000005
2020-03-23,Helvecia,Garay,Santa Fe,-31.100417999999998,-60.093723
2020-03-23,Esperanza,Las Colonias,Santa Fe,-31.4498174,-60.91872289999999
2020-03-24,Helvecia,Garay,Santa Fe,-31.100417999999998,-60.093723
2020-03-24,Rafaela,Castellanos,Santa Fe,-31.254752000000003,-61.522802
2020-03-24,Rafaela,Castellanos,Santa Fe,-31.254752000000003,-61.522802
2020-03-24,Roldán,San Lorenzo,Santa Fe,-32.906594,-60.894515000000006
2020-03-24,Roldán,San Lorenzo,Santa Fe,-32.906594,-60.894515000000006
2020-03-25,Casilda,Caseros,Santa Fe,-33.048511,-61.17451
2020-03-25,Rafaela,Castellanos,Santa Fe,-31.254752000000003,-61.522802
2020-03-25,Villa Constitución,Constitución,Santa Fe,-33.239043,-60.33183100000001
2020-03-25,Venado Tuerto,General López,Santa Fe,-33.744572999999995,-61.97760400000001
2020-03-25,Santa Fe,La Capital,Santa Fe,-31.597238,-60.703039000000004
2020-03-25,Santa Fe,La Capital,Santa Fe,-31.597238,-60.703039000000004
2020-03-25,Santa Fe,La Capital,Santa Fe,-31.597238,-60.703039000000004
2020-03-25,Santa Fe,La Capital,Santa Fe,-31.597238,-60.703039000000004
2020-03-25,Santa Fe,La Capital,Santa Fe,-31.597238,-60.703039000000004
2020-03-25,Santa Fe,La Capital,Santa Fe,-31.597238,-60.703039000000004
2020-03-25,Santa Fe,La Capital,Santa Fe,-31.597238,-60.703039000000004
2020-03-25,Santo Tomé,La Capital,Santa Fe,-31.6719313,-60.81587929999999
2020-03-25,Santo Tomé,La Capital,Santa Fe,-31.6719313,-60.81587929999999
2020-03-25,Santo Tomé,La Capital,Santa Fe,-31.6719313,-60.81587929999999
2020-03-25,Sauce Viejo,La Capital,Santa Fe,-31.768518699999998,-60.835583299999996
2020-03-25,Rosario,Rosario,Santa Fe,-32.951583,-60.658914
2020-03-25,Rosario,Rosario,Santa Fe,-32.951583,-60.658914
2020-03-25,San Javier,San Javier,Santa Fe,-30.574491899999998,-59.9410152
2020-03-25,Galvez,San Jerónimo,Santa Fe,-32.028863,-61.22444
2020-03-26,Rosario,Rosario,Santa Fe,-32.951583,-60.658914
2020-03-26,Rosario,Rosario,Santa Fe,-32.951583,-60.658914
2020-03-26,Rosario,Rosario,Santa Fe,-32.951583,-60.658914
2020-03-26,Rosario,Rosario,Santa Fe,-32.951583,-60.658914
2020-03-26,Rafaela,Castellanos,Santa Fe,-31.254752000000003,-61.522802
2020-03-26,Las Parejas,Belgrano,Santa Fe,-32.6854497,-61.5327091
2020-03-26,Casilda,Caseros,Santa Fe,-33.048511,-61.17451
2020-03-26,San José del Rincón,La Capital,Santa Fe,-31.599999,-60.600838
2020-03-26,Santa Fe,La Capital,Santa Fe,-31.597238,-60.703039000000004
2020-03-26,Santa Fe,La Capital,Santa Fe,-31.597238,-60.703039000000004
2020-03-26,Santa Fe,La Capital,Santa Fe,-31.597238,-60.703039000000004
2020-03-26,Santa Fe,La Capital,Santa Fe,-31.597238,-60.703039000000004
2020-03-26,Santa Fe,La Capital,Santa Fe,-31.597238,-60.703039000000004
2020-03-26,Franck,Las Colonias,Santa Fe,-31.581722999999997,-60.95605
2020-03-26,Humboldt,Las Colonias,Santa Fe,-31.398716999999998,-61.088825
2020-03-26,Vera,Vera,Santa Fe,-29.459076,-60.214647
2020-03-27,Rosario,Rosario,Santa Fe,-32.951583,-60.658914
2020-03-27,Rosario,Rosario,Santa Fe,-32.951583,-60.658914
2020-03-27,Rosario,Rosario,Santa Fe,-32.951583,-60.658914
2020-03-27,Rosario,Rosario,Santa Fe,-32.951583,-60.658914
2020-03-27,Rosario,Rosario,Santa Fe,-32.951583,-60.658914
2020-03-27,Rosario,Rosario,Santa Fe,-32.951583,-60.658914
2020-03-27,Pueblo Andino,Iriondo,Santa Fe,-32.6717591,-60.88155379999999
2020-03-27,Venado Tuerto,General López,Santa Fe,-33.744572999999995,-61.97760400000001
2020-03-27,Villa Constitución,Constitución,Santa Fe,-33.239043,-60.33183100000001
2020-03-28,Rafaela,Castellanos,Santa Fe,-31.254752000000003,-61.522802
2020-03-28,Rafaela,Castellanos,Santa Fe,-31.254752000000003,-61.522802
2020-03-28,Rafaela,Castellanos,Santa Fe,-31.254752000000003,-61.522802
2020-03-28,Rafaela,Castellanos,Santa Fe,-31.254752000000003,-61.522802
2020-03-28,Santa Fe,La Capital,Santa Fe,-31.597238,-60.703039000000004
2020-03-28,Santa Fe,La Capital,Santa Fe,-31.597238,-60.703039000000004
2020-03-28,Santa Fe,La Capital,Santa Fe,-31.597238,-60.703039000000004
2020-03-28,Santa Fe,La Capital,Santa Fe,-31.597238,-60.703039000000004
2020-03-28,Rosario,Rosario,Santa Fe,-32.951583,-60.658914
2020-03-28,Rosario,Rosario,Santa Fe,-32.951583,-60.658914
2020-03-28,Rosario,Rosario,Santa Fe,-32.951583,-60.658914
2020-03-28,Santo Tomé,La Capital,Santa Fe,-31.6719313,-60.81587929999999
2020-03-28,Chabás,Caseros,Santa Fe,-33.2441169,-61.384907
2020-03-29,Rosario,Rosario,Santa Fe,-32.951583,-60.658914
2020-03-29,Rosario,Rosario,Santa Fe,-32.951583,-60.658914
2020-03-29,Rosario,Rosario,Santa Fe,-32.951583,-60.658914
2020-03-29,Rosario,Rosario,Santa Fe,-32.951583,-60.658914
2020-03-29,Rosario,Rosario,Santa Fe,-32.951583,-60.658914
2020-03-29,Rosario,Rosario,Santa Fe,-32.951583,-60.658914
2020-03-29,Rosario,Rosario,Santa Fe,-32.951583,-60.658914
2020-03-29,Galvez,San Jerónimo,Santa Fe,-32.028863,-61.22444
2020-03-29,Galvez,San Jerónimo,Santa Fe,-32.028863,-61.22444
2020-03-29,Galvez,San Jerónimo,Santa Fe,-32.028863,-61.22444
2020-03-29,Arroyo Seco,Rosario,Santa Fe,-33.1600575,-60.5728645
2020-03-29,Arroyo Seco,Rosario,Santa Fe,-33.1600575,-60.5728645
2020-03-29,Santa Fe,La Capital,Santa Fe,-31.597238,-60.703039000000004
2020-03-30,Rosario,Rosario,Santa Fe,-32.951583,-60.658914
2020-03-30,Rosario,Rosario,Santa Fe,-32.951583,-60.658914
2020-03-30,Rosario,Rosario,Santa Fe,-32.951583,-60.658914
2020-03-30,Rosario,Rosario,Santa Fe,-32.951583,-60.658914
2020-03-30,Rosario,Rosario,Santa Fe,-32.951583,-60.658914
2020-03-30,Rosario,Rosario,Santa Fe,-32.951583,-60.658914
2020-03-30,Rosario,Rosario,Santa Fe,-32.951583,-60.658914
2020-03-30,Rosario,Rosario,Santa Fe,-32.951583,-60.658914
2020-03-30,Rosario,Rosario,Santa Fe,-32.951583,-60.658914
2020-03-30,Rosario,Rosario,Santa Fe,-32.951583,-60.658914
2020-03-30,Rosario,Rosario,Santa Fe,-32.951583,-60.658914
2020-03-30,Rosario,Rosario,Santa Fe,-32.951583,-60.658914
2020-03-30,Rosario,Rosario,Santa Fe,-32.951583,-60.658914
2020-03-30,Rosario,Rosario,Santa Fe,-32.951583,-60.658914
2020-03-30,Villa Constitución,Constitución,Santa Fe,-33.239043,-60.33183100000001
2020-03-30,Villa Constitución,Constitución,Santa Fe,-33.239043,-60.33183100000001
2020-03-30,Armstrong,Belgrano,Santa Fe,-32.7814702,-61.623332
2020-03-30,Armstrong,Belgrano,Santa Fe,-32.7814702,-61.623332
2020-03-30,Rafaela,Castellanos,Santa Fe,-31.254752000000003,-61.522802
2020-03-30,Funes,Rosario,Santa Fe,-32.948209999999996,-61.0201238
2020-03-30,Roldán,San Lorenzo,Santa Fe,-32.906594,-60.894515000000006
2020-03-31,Rosario,Rosario,Santa Fe,-32.951583,-60.658914
2020-03-31,Rosario,Rosario,Santa Fe,-32.951583,-60.658914
2020-03-31,Rosario,Rosario,Santa Fe,-32.951583,-60.658914
2020-03-31,Rosario,Rosario,Santa Fe,-32.951583,-60.658914
2020-03-31,Rosario,Rosario,Santa Fe,-32.951583,-60.658914
2020-03-31,Rosario,Rosario,Santa Fe,-32.951583,-60.658914
2020-03-31,Rosario,Rosario,Santa Fe,-32.951583,-60.658914
2020-03-31,Santa Fe,La Capital,Santa Fe,-31.597238,-60.703039000000004
2020-03-31,Santa Fe,La Capital,Santa Fe,-31.597238,-60.703039000000004
2020-03-31,Santa Fe,La Capital,Santa Fe,-31.597238,-60.703039000000004
2020-03-31,Santa Fe,La Capital,Santa Fe,-31.597238,-60.703039000000004
2020-03-31,Rafaela,Castellanos,Santa Fe,-31.254752000000003,-61.522802
2020-03-31,Rafaela,Castellanos,Santa Fe,-31.254752000000003,-61.522802
2020-03-31,Rafaela,Castellanos,Santa Fe,-31.254752000000003,-61.522802
2020-03-31,Pujato,San Lorenzo,Santa Fe,-33.0155977,-61.0617535
2020-03-31,Pujato,San Lorenzo,Santa Fe,-33.0155977,-61.0617535
2020-03-31,Elortondo,General López,Santa Fe,-33.699918700000005,-61.6258412
2020-03-31,Elortondo,General López,Santa Fe,-33.699918700000005,-61.6258412
2020-03-31,Cañada de Gómez,Iriondo,Santa Fe,-32.8146262,-61.42948320000001
2020-03-31,Pueblo Andino,Iriondo,Santa Fe,-32.6717591,-60.88155379999999
2020-03-31,Roldán,San Lorenzo,Santa Fe,-32.906594,-60.894515000000006
2020-03-31,San Carlos Sud,Las Colonias,Santa Fe,-31.760034,-61.120132299999995
2020-04-01,Rosario,Rosario,Santa Fe,-32.951583,-60.658914
2020-04-01,Rosario,Rosario,Santa Fe,-32.951583,-60.658914
2020-04-01,Rosario,Rosario,Santa Fe,-32.951583,-60.658914
2020-04-01,Rosario,Rosario,Santa Fe,-32.951583,-60.658914
2020-04-01,Rosario,Rosario,Santa Fe,-32.951583,-60.658914
2020-04-01,Villa Constitución,Constitución,Santa Fe,-33.239043,-60.33183100000001
2020-04-01,Funes,Rosario,Santa Fe,-32.948209999999996,-61.0201238
2020-04-01,Villa Gobernador Gálvez,Rosario,Santa Fe,-33.022764,-60.639393000000005
2020-04-01,San Genaro,San Jerónimo,Santa Fe,-32.370737,-61.3780755
2020-04-01,Galvez,San Jerónimo,Santa Fe,-32.028863,-61.22444
2020-04-01,Venado Tuerto,General López,Santa Fe,-33.744572999999995,-61.97760400000001
2020-04-02,Rafaela,Castellanos,Santa Fe,-31.254752000000003,-61.522802
2020-04-02,Rafaela,Castellanos,Santa Fe,-31.254752000000003,-61.522802
2020-04-02,Rafaela,Castellanos,Santa Fe,-31.254752000000003,-61.522802
2020-04-02,Rafaela,Castellanos,Santa Fe,-31.254752000000003,-61.522802
2020-04-02,Rosario,Rosario,Santa Fe,-32.951583,-60.658914
2020-04-02,Rosario,Rosario,Santa Fe,-32.951583,-60.658914
2020-04-02,San Lorenzo,San Lorenzo,Santa Fe,-32.747952000000005,-60.776297899999996
2020-04-02,Funes,Rosario,Santa Fe,-32.948209999999996,-61.0201238
2020-04-03,Rosario,Rosario,Santa Fe,-32.951583,-60.658914
2020-04-03,Rosario,Rosario,Santa Fe,-32.951583,-60.658914
2020-04-03,Rosario,Rosario,Santa Fe,-32.951583,-60.658914
2020-04-03,Rosario,Rosario,Santa Fe,-32.951583,-60.658914
2020-04-03,Rosario,Rosario,Santa Fe,-32.951583,-60.658914
2020-04-03,Rosario,Rosario,Santa Fe,-32.951583,-60.658914
2020-04-03,Rosario,Rosario,Santa Fe,-32.951583,-60.658914
2020-04-03,Rafaela,Castellanos,Santa Fe,-31.254752000000003,-61.522802
2020-04-04,Rosario,Rosario,Santa Fe,-32.951583,-60.658914
2020-04-04,Rosario,Rosario,Santa Fe,-32.951583,-60.658914
2020-04-04,Rosario,Rosario,Santa Fe,-32.951583,-60.658914
2020-04-04,Santa Fe,La Capital,Santa Fe,-31.597238,-60.703039000000004
2020-04-04,Firmat,General López,Santa Fe,-33.4585226,-61.5050402
2020-04-05,Rosario,Rosario,Santa Fe,-32.951583,-60.658914
2020-04-05,Rosario,Rosario,Santa Fe,-32.951583,-60.658914
2020-04-05,Rosario,Rosario,Santa Fe,-32.951583,-60.658914
2020-04-05,Rosario,Rosario,Santa Fe,-32.951583,-60.658914
2020-04-05,Rosario,Rosario,Santa Fe,-32.951583,-60.658914
2020-04-05,Llambi Campbell,La Capital,Santa Fe,-31.1868557,-60.754515299999994
2020-04-05,Llambi Campbell,La Capital,Santa Fe,-31.1868557,-60.754515299999994
2020-04-05,Llambi Campbell,La Capital,Santa Fe,-31.1868557,-60.754515299999994
2020-04-05,Villa Constitución,Constitución,Santa Fe,-33.239043,-60.33183100000001
2020-04-05,Santo Tomé,La Capital,Santa Fe,-31.6719313,-60.81587929999999
2020-04-05,Venado Tuerto,General López,Santa Fe,-33.744572999999995,-61.97760400000001
2020-04-06,Villa Constitución,Constitución,Santa Fe,-33.239043,-60.33183100000001
2020-04-06,Villa Constitución,Constitución,Santa Fe,-33.239043,-60.33183100000001
2020-04-06,Santa Fe,La Capital,Santa Fe,-31.597238,-60.703039000000004
2020-04-06,Santa Fe,La Capital,Santa Fe,-31.597238,-60.703039000000004
2020-04-06,Santa Fe,La Capital,Santa Fe,-31.597238,-60.703039000000004
2020-04-06,Rosario,Rosario,Santa Fe,-32.951583,-60.658914
2020-04-06,Rosario,Rosario,Santa Fe,-32.951583,-60.658914
2020-04-06,Rosario,Rosario,Santa Fe,-32.951583,-60.658914
2020-04-07,Granadero Baigorria,Rosario,Santa Fe,-32.8513669,-60.7486689
2020-04-07,Las Rosas,Belgrano,Santa Fe,-32.4767998,-61.59854179999999
2020-04-07,Rosario,Rosario,Santa Fe,-32.951583,-60.658914
2020-04-08,Rosario,Rosario,Santa Fe,-32.951583,-60.658914
2020-04-08,Rosario,Rosario,Santa Fe,-32.951583,-60.658914
2020-04-09,Elortondo,General López,Santa Fe,-33.699918700000005,-61.6258412
2020-04-09,Elortondo,General López,Santa Fe,-33.699918700000005,-61.6258412
2020-04-09,Galvez,San Jerónimo,Santa Fe,-32.028863,-61.22444
2020-04-09,Galvez,San Jerónimo,Santa Fe,-32.028863,-61.22444
2020-04-09,Venado Tuerto,General López,Santa Fe,-33.744572999999995,-61.97760400000001
2020-04-09,Santa Fe,La Capital,Santa Fe,-31.597238,-60.703039000000004
2020-04-09,Oliveros,Iriondo,Santa Fe,-32.574674800000004,-60.8675081
2020-04-10,Rosario,Rosario,Santa Fe,-32.951583,-60.658914
2020-04-11,Funes,Rosario,Santa Fe,-32.948209999999996,-61.0201238
2020-04-11,Rafaela,Castellanos,Santa Fe,-31.254752000000003,-61.522802
2020-04-11,Rosario,Rosario,Santa Fe,-32.951583,-60.658914
2020-04-12,Rosario,Rosario,Santa Fe,-32.951583,-60.658914
2020-04-12,Rosario,Rosario,Santa Fe,-32.951583,-60.658914
2020-04-12,Rosario,Rosario,Santa Fe,-32.951583,-60.658914
2020-04-13,Rafaela,Castellanos,Santa Fe,-31.254752000000003,-61.522802
2020-04-13,Rosario,Rosario,Santa Fe,-32.951583,-60.658914
2020-04-14,Roldán,San Lorenzo,Santa Fe,-32.906594,-60.894515000000006
2020-04-14,Oliveros,Iriondo,Santa Fe,-32.574674800000004,-60.8675081
2020-04-15,Cayastá,Garay,Santa Fe,-31.194302,-60.16887510000001
2020-04-15,Rosario,Rosario,Santa Fe,-32.951583,-60.658914
2020-04-16,Villa Constitución,Constitución,Santa Fe,-33.239043,-60.33183100000001
2020-04-16,Rosario,Rosario,Santa Fe,-32.951583,-60.658914
2020-04-16,Rosario,Rosario,Santa Fe,-32.951583,-60.658914
2020-04-17,Rosario,Rosario,Santa Fe,-32.951583,-60.658914
2020-04-17,Rosario,Rosario,Santa Fe,-32.951583,-60.658914
2020-04-17,Rosario,Rosario,Santa Fe,-32.951583,-60.658914
2020-04-17,Rosario,Rosario,Santa Fe,-32.951583,-60.658914
2020-04-17,Rosario,Rosario,Santa Fe,-32.951583,-60.658914
2020-04-17,Rosario,Rosario,Santa Fe,-32.951583,-60.658914
2020-04-18,Roldán,San Lorenzo,Santa Fe,-32.906594,-60.894515000000006
2020-04-18,Rosario,Rosario,Santa Fe,-32.951583,-60.658914
2020-04-18,Oliveros,Iriondo,Santa Fe,-32.574674800000004,-60.8675081
2020-04-19,Rosario,Rosario,Santa Fe,-32.951583,-60.658914
2020-04-20,Venado Tuerto,General López,Santa Fe,-33.744572999999995,-61.97760400000001
2020-04-20,Venado Tuerto,General López,Santa Fe,-33.744572999999995,-61.97760400000001
2020-04-21,Rafaela,Castellanos,Santa Fe,-31.254752000000003,-61.522802
2020-04-22,Venado Tuerto,General López,Santa Fe,-33.744572999999995,-61.97760400000001
2020-04-22,Venado Tuerto,General López,Santa Fe,-33.744572999999995,-61.97760400000001
2020-04-22,Venado Tuerto,General López,Santa Fe,-33.744572999999995,-61.97760400000001
2020-04-22,Funes,Rosario,Santa Fe,-32.948209999999996,-61.0201238
2020-04-22,Rosario,Rosario,Santa Fe,-32.951583,-60.658914
2020-04-23,San Lorenzo,San Lorenzo,Santa Fe,-32.747952000000005,-60.776297899999996
2020-04-23,San Lorenzo,San Lorenzo,Santa Fe,-32.747952000000005,-60.776297899999996
2020-04-23,Fray Luis Beltrán,San Lorenzo,Santa Fe,-32.7885807,-60.7451549
2020-04-23,Granadero Baigorria,Rosario,Santa Fe,-32.8513669,-60.7486689
2020-04-23,Oliveros,Iriondo,Santa Fe,-32.574674800000004,-60.8675081
2020-04-23,Venado Tuerto,General López,Santa Fe,-33.744572999999995,-61.97760400000001
2020-04-24,Sancti Spiritu,General López,Santa Fe,-34.011527,-62.2585421
2020-04-24,Capitán Bermúdez,San Lorenzo,Santa Fe,-32.8253195,-60.7367421
2020-04-24,Venado Tuerto,General López,Santa Fe,-33.744572999999995,-61.97760400000001
2020-04-25,Fray Luis Beltrán,San Lorenzo,Santa Fe,-32.7885807,-60.7451549
2020-04-25,Fray Luis Beltrán,San Lorenzo,Santa Fe,-32.7885807,-60.7451549
2020-04-25,Rosario,Rosario,Santa Fe,-32.951583,-60.658914
2020-04-28,Fray Luis Beltrán,San Lorenzo,Santa Fe,-32.7885807,-60.7451549
2020-05-05,María Juana,Castellanos,Santa Fe,-31.675412199999997,-61.7705407
2020-05-16,Rosario,Rosario,Santa Fe,-32.951583,-60.658914
2020-05-18,Rosario,Rosario,Santa Fe,-32.951583,-60.658914
2020-05-18,Rosario,Rosario,Santa Fe,-32.951583,-60.658914
2020-05-18,Rosario,Rosario,Santa Fe,-32.951583,-60.658914
2020-05-18,Rosario,Rosario,Santa Fe,-32.951583,-60.658914
2020-05-20,Rosario,Rosario,Santa Fe,-32.951583,-60.658914
2020-05-20,Rosario,Rosario,Santa Fe,-32.951583,-60.658914
2020-05-21,Rosario,Rosario,Santa Fe,-32.951583,-60.658914
2020-05-21,Rosario,Rosario,Santa Fe,-32.951583,-60.658914
2020-05-21,Rosario,Rosario,Santa Fe,-32.951583,-60.658914
2020-05-22,Rosario,Rosario,Santa Fe,-32.951583,-60.658914
2020-05-22,Rosario,Rosario,Santa Fe,-32.951583,-60.658914
2020-05-22,Rosario,Rosario,Santa Fe,-32.951583,-60.658914
2020-05-22,Rosario,Rosario,Santa Fe,-32.951583,-60.658914
2020-05-24,Las Rosas,Belgrano,Santa Fe,-32.4767998,-61.59854179999999
